Create ADSL - pharmaverse examples
…
bmis <- sdtm_vs %>% 
   # Get baseline weight 
   filter( VISITNUM == 3, VSTESTCD == "WEIGHT") %>% 
   select(USUBJID, VSTEST, VSSTRESN) %>% 
   # Combine with height 
   bind_rows(heights) %>% 
   # Pivot to a row per subject and calculate BMIBL
   pivot_wider(names_from = VSTEST, values_from = VSSTRESN) %>% 
   mutate(BMIBL = compute_bmi(Height, Weight)) %>% 
   rename(WEIGHTBL = Weight, HEIGHTBL = Height) %>%
   # Create the BMI grouping using the control terminology 
   create_cat_var(metacore, BMIBL, BMIBLGR1)
bmis 

## # A tibble: 254 × 5
##    USUBJID     WEIGHTBL HEIGHTBL BMIBL BMIBLGR1
##    <chr>          <dbl>    <dbl> <dbl> <chr>   
##  1 01-701-1015     54.4     147.  25.1 25-<30  
##  2 01-701-1023     80.3     163.  30.4 >=30    
##  3 01-701-1028     99.3     178.  31.4 >=30    
##  4 01-701-1033     88.4     175.  28.8 25-<30  
##  5 01-701-1034     62.6     155.  26.1 25-<30  
##  6 01-701-1047     67.1     149.  30.4 >=30    
##  7 01-701-1097     78.0     169.  27.3 25-<30  
##  8 01-701-1111     59.9     158.  23.9 <25     
##  9 01-701-1115     78.9     182.  23.9 <25     
## 10 01-701-1118     71.2     180.  21.9 <25     
## # … with 244 more rows
…
adsl_raw %>% 
   check_variables(metacore) %>% # Check all variables specified are present and no more
   check_ct_data(metacore) %>% # Checks all variables with CT only contain values within the CT
   order_cols(metacore) %>% # Orders the columns according to the spec
   sort_by_key(metacore) %>% # Sorts the rows by the sort keys 
   xportr_type(test) %>% # Coerce variable type to match spec
   xportr_length(metacore) %>% # Assigns SAS length from a variable level metadata 
   xportr_label(metacore) %>% # Assigns variable label from metacore specifications 
   xportr_df_label(metacore) # Assigns dataset label from metacore specifications

## No missing or extra variables

## # A tibble: 248 × 49
##    STUDYID     USUBJID SUBJID SITEID SITEGR1 ARM   TRT01P TRT01PN TRT01A TRT01AN
##    <chr>       <chr>    <dbl> <chr>  <chr>   <chr> <chr>    <dbl> <chr>    <dbl>
##  1 CDISCPILOT… 01-701…   1015 701    701     Plac… Place…       0 Place…       0
##  2 CDISCPILOT… 01-701…   1023 701    701     Plac… Place…       0 Place…       0
##  3 CDISCPILOT… 01-701…   1028 701    701     Xano… Xanom…      81 Xanom…      81
##  4 CDISCPILOT… 01-701…   1033 701    701     Xano… Xanom…      54 Xanom…      54
##  5 CDISCPILOT… 01-701…   1034 701    701     Xano… Xanom…      81 Xanom…      81
##  6 CDISCPILOT… 01-701…   1047 701    701     Plac… Place…       0 Place…       0
##  7 CDISCPILOT… 01-701…   1097 701    701     Xano… Xanom…      54 Xanom…      54
##  8 CDISCPILOT… 01-701…   1111 701    701     Xano… Xanom…      54 Xanom…      54
##  9 CDISCPILOT… 01-701…   1115 701    701     Xano… Xanom…      54 Xanom…      54
## 10 CDISCPILOT… 01-701…   1118 701    701     Plac… Place…       0 Place…       0
## # … with 238 more rows, and 39 more variables: TRTSDT <dbl>, TRTEDT <dbl>,
## #   TRTDURD <dbl>, AVGDD <dbl>, CUMDOSE <dbl>, AGE <dbl>, AGEGR1 <chr>,
## #   AGEGR1N <dbl>, AGEU <chr>, RACE <chr>, RACEN <dbl>, SEX <chr>,
## #   ETHNIC <chr>, SAFFL <chr>, ITTFL <chr>, EFFFL <chr>, COMP8FL <chr>,
## #   COMP16FL <chr>, COMP24FL <chr>, DISCONFL <chr>, DSRAEFL <chr>, DTHFL <chr>,
## #   BMIBL <dbl>, BMIBLGR1 <chr>, HEIGHTBL <dbl>, WEIGHTBL <dbl>, EDUCLVL <dbl>,
## #   DISONSDT <dbl>, DURDIS <dbl>, DURDSGR1 <chr>, VISIT1DT <dbl>, …
